{
  "pageNumber": 0,
  "totalPages": 2,
  "totalItems": 15,
  "Users": [
    {
      "id": 1,
      "name": "Monique Jobke",
      "email": "mjobke0@ebay.co.uk",
      "statusId": 0,
      "status": "Ativo"
    },
    {
      "id": 2,
      "name": "Harlin Rollitt",
      "email": "hrollitt1@go.com",
      "statusId": 0,
      "status": "Ativo"
    },
    {
      "id": 3,
      "name": "Nicolette Willock",
      "email": "nwillock2@dedecms.com",
      "statusId": 1,
      "status": "Inativo"
    },
    {
      "id": 4,
      "name": "Ivan Crookes",
      "email": "icrookes3@hp.com",
      "statusId": 1,
      "status": "Inativo"
    },
    {
      "id": 5,
      "name": "Gilda Chalk",
      "email": "gchalk4@narod.ru",
      "statusId": 0,
      "status": "Ativo"
    },
    {
      "id": 6,
      "name": "Matthus Eaklee",
      "email": "meaklee5@sphinn.com",
      "statusId": 0,
      "status": "Ativo"
    },
    {
      "id": 7,
      "name": "Austen Foard",
      "email": "afoard6@wiley.com",
      "statusId": 0,
      "status": "Ativo"
    },
    {
      "id": 8,
      "name": "Pedro Guidini",
      "email": "pguidini7@un.org",
      "statusId": 0,
      "status": "Ativo"
    },
    {
      "id": 9,
      "name": "Waly Chuck",
      "email": "wchuck8@delicious.com",
      "statusId": 0,
      "status": "Ativo"
    },
    {
      "id": 10,
      "name": "Quintana Andrewartha",
      "email": "qandrewartha9@unicef.org",
      "statusId": 1,
      "status": "Inativo"
    }
  ]
}